﻿Lời khuyên
MẪU THỰC ĐƠN TUẦN CHO TRẺ 10 -12 THÁNG

  + 6h Bú mẹ Bú mẹ Bú mẹ Bú mẹ (cả tuần) 
  + 8h Cháo thịt lợn (thứ 2-4)  Cháo thịt gà  (thứ 3 -5) Cháo thịt bò(thứ 6 - CN) Cháo trứng (thứ 7)
  + 10h Chuối tiêu:1 quả  (thứ 2-4) Đu đủ: 100g (thứ 3 -5) Hồng xiêm: 1 quả (thứ 6 - CN) Xoài: 100g (thứ 7)
  + 11h Bú mẹ (cả tuần) 
  + 14h Súp thịt bò (thứ 2-4) Súp đậu xanh bí đỏ (thứ 3 -5) Cháo tôm(thứ 6 - CN)  Cháo lạc bí đỏ (thứ 7)
  + 16h Nước cam (cả tuần) 
  + 17h Bú mẹ (cả tuần) 
  + 20h Cháo cá (thứ 2-4) Cháo lươn (thứ 3 -5) Cháo thịt lợn (thứ 6 - CN)  cháo lươn (thứ 7)